R Notebook
…
3. Check which collections are available at the back-end

capabilities()

Back-end:       Google Earth Engine Proxy for openEO
Back-end version:   1.0.0-beta.5
Description:        This is the Google Earth Engine Driver for openEO.

Google Earth Engine is a planetary-scale platform for Earth science data & analysis. It is powered by Google's cloud infrastructure and combines a multi-petabyte catalog of satellite imagery and geospatial datasets with planetary-scale analysis capabilities. Google makes it available for scientists, researchers, and developers to detect changes, map trends, and quantify differences on the Earth's surface. Google Earth Engine is free for research, education, and nonprofit use.
API-version:        1.0.1
STAC
   ID:          openeo-earthengine-driver
   Version:     1.0.0
# A tibble: 22 x 2
   path                         methods   
   <chr>                        <list>    
 1 /                            <list [1]>
 2 /conformance                 <list [1]>
 3 /service_types               <list [1]>
 4 /file_formats                <list [1]>
 5 /collections                 <list [1]>
 6 /collections/{collection_id} <list [1]>
 7 /processes                   <list [1]>
 8 /files                       <list [1]>
 9 /files/{path}                <list [3]>
10 /result                      <list [1]>
# ... with 12 more rows
…
